[gd_scene load_steps=5 format=2]

[ext_resource path="res://scripts/Game.gd" type="Script" id=1]
[ext_resource path="res://scenes/stage.tscn" type="PackedScene" id=2]
[ext_resource path="res://scenes/Main.tscn" type="PackedScene" id=3]
[ext_resource path="res://scenes/Menu.tscn" type="PackedScene" id=4]

[node name="Game" type="Node2D"]
script = ExtResource( 1 )
stagePackedScene = ExtResource( 2 )
gamePackedScene = ExtResource( 3 )

[node name="Menu" parent="." instance=ExtResource( 4 )]

